{
  "corpus_dirs": ["data/corpus/essential", "data/corpus/topics", "data/corpus/misc"],
  "vocab_file": "data/corpus/vocab.txt",

  "batch_size": 64,
  "batch_size_infer": 1,
  "beam_width": 5,
  "bos_id": 1,
  "bos_token": "_bos_",
  "colocate_gradients_with_ops": true,
  "eos_id": 2,
  "eos_token": "_eos_",
  "init_op": "uniform",
  "init_weight": 0.1,
  "keep_prob": 0.9,
  "length_penalty_weight": 0.0,
  "log_device_placement": true,
  "max_gradient_norm": 5.0,
  "num_buckets": 5,
  "num_epochs": 100,
  "num_gpus": 1,
  "num_layers": 2,
  "num_units": 1024,
  "pass_hidden_state": true,
  "random_seed": 0.1,
  "source_reverse": true,
  "src_max_len": 50,
  "src_max_len_infer": null,
  "tgt_max_len": 50,
  "tgt_max_len_infer": 50,
  "time_major": true,
  "unk_token": "_unk_",
  "unk_id": 0
}
